{
  "name": "Lucas Cavalheiro",
  "socials": [
    {
      "platform": "github",
      "profile": "lgcavalheiro"
    },
    {
      "platform": "linkedin",
      "profile": "lgcavalheiro"
    },
    {
      "platform": "website",
      "profile": "https://www.lgcavalheiro.xyz"
    }
  ],
  "contacts": [
    {
      "type": "email",
      "value": "lg.cavalheiro@hotmail.com"
    }
  ]
}
